{
    "apiVersion": "1.0.5",
    "swaggerVersion": "1.2",
    "basePath": "/",
    "resourcePath": "/common",
    "produces":[
        "application/json",
        "application/xml",
        "text/plain",
        "text/html"
    ],
  "apis":[
    {
      "path": "/api/app/check/version",
      "operations": [
        {
          "method": "GET",
          "summary": "version",
          "notes": "",
          "nickname": "common_app_check_version",
          "parameters": [
            {
              "name": "ver",
              "description": "版本号",
              "type": "string",
              "paramType": "query",
              "required": true,
              "allowMultiple": false
            },
            {
              "name": "device",
              "description": "1患者端，2医生端",
              "type": "integer",
              "paramType": "query",
              "required": true,
              "allowMultiple": false
            }
          ]
        }
      ]
    }
  ]
}